{
  "pagination": {
    "current": 2,
    "total": 116838,
    "perPage": 2,
    "page": 1,
    "first": 1,
    "prev": 1,
    "next": 2,
    "last": 58419
  },
  "entities": [
    {
      "id": 4000851,
      "isActive": true,
      "isSoldOut": false,
      "isNew": true,
      "createdAt": "2018-09-13T15:56:45+02:00",
      "updatedAt": "2018-09-13T15:56:46+02:00",
      "masterKey": "24874-132",
      "images": [
        {
          "hash": "669547951ff6a1ddfaa4eddb52f0af04",
          "attributes": {
            "type": "bust",
            "focus": "product",
            "view": null,
            "angle": null,
            "preparation": null,
            "next_detail_level": null,
            "background": "white",
            "gender": null
          }
        }
      ]
    },
    {
      "id": 4000849,
      "isActive": true,
      "isSoldOut": false,
      "isNew": true,
      "createdAt": "2018-09-13T15:50:34+02:00",
      "updatedAt": "2018-09-13T15:50:35+02:00",
      "masterKey": "25046-132",
      "images": [
        {
          "hash": "51a5022db8244d8216b62d6e1e96a320",
          "attributes": {
            "type": "model",
            "focus": "product",
            "view": "front",
            "angle": null,
            "preparation": null,
            "next_detail_level": null,
            "background": "white",
            "gender": null
          }
        }
      ]
    }
  ]
}
