{
  "pagination": {
    "current": 3,
    "total": 187590,
    "perPage": 3,
    "page": 1,
    "first": 1,
    "prev": 1,
    "next": 2,
    "last": 62530
  },
  "entities": [
    {
      "id": 4001039,
      "isActive": true,
      "isSoldOut": false,
      "isNew": true,
      "createdAt": "2018-11-13T13:39:16+01:00",
      "updatedAt": "2018-11-13T13:39:17+01:00",
      "masterKey": "NUE0574-5",
      "images": [
        {
          "hash": "f90e16ab15c9776e32ae0db67d1e1d7c",
          "attributes": {
            "imageType": {
              "key": "imageType",
              "label": "Bild Typ",
              "type": "",
              "multiSelect": false,
              "values": {"id": 66480, "label": "B\u00fcste", "value": "bust"}
            },
            "imageFocus": {
              "key": "imageFocus",
              "label": "Bild Fokus",
              "type": "",
              "multiSelect": false,
              "values": {"id": 66484, "label": "Produkt", "value": "product"}
            },
            "imageView": {
              "key": "imageView",
              "label": "Bild Ansicht",
              "type": "",
              "multiSelect": false,
              "values": {
                "id": 66486,
                "label": "Frontalansicht",
                "value": "front"
              }
            },
            "imageNextDetailLevel": {
              "key": "imageNextDetailLevel",
              "label": "Bild Detaillevel",
              "type": "",
              "multiSelect": false,
              "values": {"id": 66496, "label": "40", "value": "40"}
            },
            "imageBackground": {
              "key": "imageBackground",
              "label": "Bild Hintergrund",
              "type": "",
              "multiSelect": false,
              "values": {
                "id": 66507,
                "label": "transparent",
                "value": "transparent"
              }
            },
            "imageGender": {
              "key": "imageGender",
              "label": "Bild Geschlecht",
              "type": "",
              "multiSelect": false,
              "values": {"id": 66508, "label": "female", "value": "female"}
            }
          }
        },
        {
          "hash": "031d293d56fe865cf520b6952fc85b07",
          "attributes": {
            "imageType": {
              "key": "imageType",
              "label": "Bild Typ",
              "type": "",
              "multiSelect": false,
              "values": {"id": 66481, "label": "Model", "value": "model"}
            },
            "imageFocus": {
              "key": "imageFocus",
              "label": "Bild Fokus",
              "type": "",
              "multiSelect": false,
              "values": {"id": 66484, "label": "Produkt", "value": "product"}
            },
            "imageView": {
              "key": "imageView",
              "label": "Bild Ansicht",
              "type": "",
              "multiSelect": false,
              "values": {
                "id": 66486,
                "label": "Frontalansicht",
                "value": "front"
              }
            },
            "imageNextDetailLevel": {
              "key": "imageNextDetailLevel",
              "label": "Bild Detaillevel",
              "type": "",
              "multiSelect": false,
              "values": {"id": 66498, "label": "30", "value": "30"}
            },
            "imageBackground": {
              "key": "imageBackground",
              "label": "Bild Hintergrund",
              "type": "",
              "multiSelect": false,
              "values": {"id": 66504, "label": "wei\u00df", "value": "white"}
            },
            "imageGender": {
              "key": "imageGender",
              "label": "Bild Geschlecht",
              "type": "",
              "multiSelect": false,
              "values": {"id": 66508, "label": "female", "value": "female"}
            }
          }
        },
        {
          "hash": "b2fe8c85a7c8882616f46c8225b8ddca",
          "attributes": {
            "imageType": {
              "key": "imageType",
              "label": "Bild Typ",
              "type": "",
              "multiSelect": false,
              "values": {"id": 66481, "label": "Model", "value": "model"}
            },
            "imageFocus": {
              "key": "imageFocus",
              "label": "Bild Fokus",
              "type": "",
              "multiSelect": false,
              "values": {"id": 66484, "label": "Produkt", "value": "product"}
            },
            "imageView": {
              "key": "imageView",
              "label": "Bild Ansicht",
              "type": "",
              "multiSelect": false,
              "values": {
                "id": 66487,
                "label": "R\u00fcckansicht",
                "value": "back"
              }
            },
            "imageNextDetailLevel": {
              "key": "imageNextDetailLevel",
              "label": "Bild Detaillevel",
              "type": "",
              "multiSelect": false,
              "values": {"id": 66498, "label": "30", "value": "30"}
            },
            "imageBackground": {
              "key": "imageBackground",
              "label": "Bild Hintergrund",
              "type": "",
              "multiSelect": false,
              "values": {"id": 66504, "label": "wei\u00df", "value": "white"}
            },
            "imageGender": {
              "key": "imageGender",
              "label": "Bild Geschlecht",
              "type": "",
              "multiSelect": false,
              "values": {"id": 66508, "label": "female", "value": "female"}
            }
          }
        },
        {
          "hash": "a19675f64e1dced1e27099a26560aabb",
          "attributes": {
            "imageType": {
              "key": "imageType",
              "label": "Bild Typ",
              "type": "",
              "multiSelect": false,
              "values": {"id": 66481, "label": "Model", "value": "model"}
            },
            "imageFocus": {
              "key": "imageFocus",
              "label": "Bild Fokus",
              "type": "",
              "multiSelect": false,
              "values": {"id": 66485, "label": "Outfit", "value": "combination"}
            },
            "imageNextDetailLevel": {
              "key": "imageNextDetailLevel",
              "label": "Bild Detaillevel",
              "type": "",
              "multiSelect": false,
              "values": {"id": 66499, "label": "10", "value": "10"}
            },
            "imageBackground": {
              "key": "imageBackground",
              "label": "Bild Hintergrund",
              "type": "",
              "multiSelect": false,
              "values": {"id": 66504, "label": "wei\u00df", "value": "white"}
            },
            "imageGender": {
              "key": "imageGender",
              "label": "Bild Geschlecht",
              "type": "",
              "multiSelect": false,
              "values": {"id": 66508, "label": "female", "value": "female"}
            }
          }
        },
        {
          "hash": "bc4a73245208f48666305c59ab9a430c",
          "attributes": {
            "imageType": {
              "key": "imageType",
              "label": "Bild Typ",
              "type": "",
              "multiSelect": false,
              "values": {"id": 66481, "label": "Model", "value": "model"}
            },
            "imageFocus": {
              "key": "imageFocus",
              "label": "Bild Fokus",
              "type": "",
              "multiSelect": false,
              "values": {"id": 66483, "label": "Detail", "value": "detail"}
            },
            "imageNextDetailLevel": {
              "key": "imageNextDetailLevel",
              "label": "Bild Detaillevel",
              "type": "",
              "multiSelect": false,
              "values": {"id": 66500, "label": "50", "value": "50"}
            },
            "imageBackground": {
              "key": "imageBackground",
              "label": "Bild Hintergrund",
              "type": "",
              "multiSelect": false,
              "values": {"id": 66504, "label": "wei\u00df", "value": "white"}
            },
            "imageGender": {
              "key": "imageGender",
              "label": "Bild Geschlecht",
              "type": "",
              "multiSelect": false,
              "values": {"id": 66508, "label": "female", "value": "female"}
            }
          }
        }
      ],
      "attributes": {
        "careSymbol": {
          "key": "careSymbol",
          "label": "Pflegehinweise",
          "type": "material_care",
          "multiSelect": true,
          "values": [
            {
              "id": 27971,
              "label": "30 \u00b0C W\u00e4sche",
              "value": "machine_wash_30"
            },
            {
              "id": 27975,
              "label": "Nicht trocknergeeignet",
              "value": "do_not_tumble_dry"
            },
            {
              "id": 27978,
              "label": "Trockenreinigung, kein Perchlorethylen",
              "value": "dry_clean_any_solvent_except_trichloroethylene"
            },
            {
              "id": 27981,
              "label": "Nicht hei\u00df b\u00fcgeln",
              "value": "iron_low"
            },
            {"id": 27984, "label": "Nicht bleichen", "value": "do_not_bleach"}
          ]
        },
        "quantityPerPack": {
          "key": "quantityPerPack",
          "label": "Pack",
          "type": "extras",
          "multiSelect": false,
          "values": {"id": 28224, "label": "1er Pack", "value": "1"}
        },
        "packsColorway": {
          "key": "packsColorway",
          "label": "Farben pro Pack",
          "type": "design",
          "multiSelect": false,
          "values": {
            "id": 34999,
            "label": "Eine Farbe pro Pack",
            "value": "one_color"
          }
        },
        "plusSize": {
          "key": "plusSize",
          "label": "Plus Size",
          "type": "",
          "multiSelect": false,
          "values": {"id": 35002, "label": "nein"}
        },
        "maternity": {
          "key": "maternity",
          "label": "Umstandsmode",
          "type": "",
          "multiSelect": false,
          "values": {"id": 35004, "label": "nein"}
        },
        "materialStyle": {
          "key": "materialStyle",
          "label": "Material",
          "type": "design",
          "multiSelect": true,
          "values": [
            {"id": 35023, "label": "Sweatstoff", "value": "sweat_knit"},
            {"id": 35459, "label": "Baumwolle", "value": "cotton_woven"}
          ]
        },
        "sleeveLength": {
          "key": "sleeveLength",
          "label": "\u00c4rmell\u00e4nge",
          "type": "fit_size",
          "multiSelect": false,
          "values": {"id": 35033, "label": "Langarm", "value": "1"}
        },
        "upperLength": {
          "key": "upperLength",
          "label": "L\u00e4nge",
          "type": "fit_size",
          "multiSelect": false,
          "values": {
            "id": 35041,
            "label": "Normale L\u00e4nge",
            "value": "regular"
          }
        },
        "necklineStyle": {
          "key": "necklineStyle",
          "label": "Ausschnitt",
          "type": "design",
          "multiSelect": false,
          "values": {
            "id": 35043,
            "label": "Rundhals-Ausschnitt",
            "value": "o_neck"
          }
        },
        "fashionStyle": {
          "key": "fashionStyle",
          "label": "Stilrichtung",
          "type": "",
          "multiSelect": true,
          "values": [
            {"id": 35328, "label": "Urban", "value": "urban"},
            {"id": 35331, "label": "Streetwear", "value": "streetwear"}
          ]
        },
        "details": {
          "key": "details",
          "label": "Details",
          "type": "extras",
          "multiSelect": true,
          "values": [
            {"id": 35337, "label": "Plain/ohne Details", "value": "without"}
          ]
        },
        "colorDetail": {
          "key": "colorDetail",
          "label": "Detailfarbe",
          "type": "",
          "multiSelect": false,
          "values": {"id": 38819, "label": "gr\u00fcn", "value": "gruen"}
        },
        "color": {
          "key": "color",
          "label": "Suchfarbe",
          "type": "",
          "multiSelect": false,
          "values": {"id": 38926, "label": "gr\u00fcn", "value": "gruen"}
        },
        "fitting": {
          "key": "fitting",
          "label": "Passform",
          "type": "fit_size",
          "multiSelect": false,
          "values": {
            "id": 56643,
            "label": "Lockere Passform",
            "value": "lockere_passform"
          }
        },
        "design": {
          "key": "design",
          "label": "Design",
          "type": "design",
          "multiSelect": true,
          "values": [
            {
              "id": 56737,
              "label": "1-Knopf-Manschetten",
              "value": "1knopfmanschetten"
            }
          ]
        },
        "basic": {
          "key": "basic",
          "label": "Basic",
          "type": "",
          "multiSelect": false,
          "values": {"id": 57113, "label": "nein", "value": "nein"}
        },
        "elasticity": {
          "key": "elasticity",
          "label": "Elastizit\u00e4t",
          "type": "material_care",
          "multiSelect": false,
          "values": {
            "id": 57115,
            "label": "Leicht elastisch",
            "value": "leicht_elastisch"
          }
        },
        "season": {
          "key": "season",
          "label": "Saison",
          "type": "",
          "multiSelect": false,
          "values": {"id": 66049, "label": "HW 18", "value": "hw_18"}
        },
        "extras": {
          "key": "extras",
          "label": "Extras",
          "type": "extras",
          "multiSelect": true,
          "values": [
            {
              "id": 69327,
              "label": "Abnehmbare \u00c4rmel",
              "value": "abnehmbare_aermel"
            }
          ]
        },
        "brand": {
          "key": "brand",
          "label": "Marke",
          "type": "",
          "multiSelect": false,
          "values": {"id": 4433, "label": "N\u00dcMPH", "value": "nuemph"}
        },
        "genderage": {
          "key": "genderage",
          "label": "Zielgruppe",
          "type": "",
          "multiSelect": false,
          "values": {"id": 25467, "label": "Female", "value": "female"}
        },
        "fashionFactor": {
          "key": "fashionFactor",
          "label": "Fashion Faktor",
          "type": "",
          "multiSelect": false,
          "values": {
            "id": 35333,
            "label": "Trendbewusst",
            "value": "fashion_forward"
          }
        },
        "channel": {
          "key": "channel",
          "label": "Verkaufskanal",
          "type": "",
          "multiSelect": false,
          "values": {"id": 27782, "label": "Mary-Paul", "value": "marypaul"}
        },
        "vendorSizeRun": {
          "key": "vendorSizeRun",
          "label": "Gr\u00f6\u00dfenlauf",
          "type": "",
          "multiSelect": false,
          "values": {
            "id": 27152,
            "label": "Unisex - Intern.",
            "value": "clothing_unisex_int"
          }
        },
        "pattern": {
          "key": "pattern",
          "label": "Muster",
          "type": "design",
          "multiSelect": false,
          "values": {"id": 35005, "label": "Unifarben", "value": "plain"}
        },
        "shopSizeRun": {
          "key": "shopSizeRun",
          "label": "Gr\u00f6\u00dfe",
          "type": "",
          "multiSelect": false,
          "values": {
            "id": 43962,
            "label": "def_female_int",
            "value": "def_female_int"
          }
        },
        "styleCluster": {
          "key": "styleCluster",
          "label": "",
          "type": "",
          "multiSelect": false,
          "values": {"id": 61593, "label": "4"}
        },
        "name": {
          "key": "name",
          "label": "Name",
          "type": null,
          "multiSelect": false,
          "values": {"label": "Sweatshirt 'NICOLA'"}
        },
        "description": {
          "key": "description",
          "label": "Description",
          "type": null,
          "multiSelect": false,
          "values": {
            "label": "Sweatshirt in Samt-Optik von N\u00fcmph. Das extravagante Material verleiht dem weitgeschnittenen Piece einen edlen Look. Auch cool als Basicteil zu schlichten Jeans zu stylen."
          }
        }
      }
    },
    {
      "id": 4001038,
      "isActive": true,
      "isSoldOut": false,
      "isNew": true,
      "createdAt": "2018-11-12T18:18:27+01:00",
      "updatedAt": "2018-11-12T18:18:28+01:00",
      "masterKey": "General_egift_card_de-135",
      "images": [
        {
          "hash": "1a51ab92d5b2fbac3c62abe0f5a47451",
          "attributes": {
            "imageType": {
              "key": "imageType",
              "label": "Bild Typ",
              "type": "",
              "multiSelect": false,
              "values": {"id": 66480, "label": "B\u00fcste", "value": "bust"}
            },
            "imageFocus": {
              "key": "imageFocus",
              "label": "Bild Fokus",
              "type": "",
              "multiSelect": false,
              "values": {"id": 66484, "label": "Produkt", "value": "product"}
            },
            "imageView": {
              "key": "imageView",
              "label": "Bild Ansicht",
              "type": "",
              "multiSelect": false,
              "values": {
                "id": 66486,
                "label": "Frontalansicht",
                "value": "front"
              }
            },
            "imageBackground": {
              "key": "imageBackground",
              "label": "Bild Hintergrund",
              "type": "",
              "multiSelect": false,
              "values": {"id": 66506, "label": "grau", "value": "grey"}
            }
          }
        },
        {
          "hash": "ef2b96952d4e65f29e4e14df0d137794",
          "attributes": {
            "imageType": {
              "key": "imageType",
              "label": "Bild Typ",
              "type": "",
              "multiSelect": false,
              "values": {"id": 66480, "label": "B\u00fcste", "value": "bust"}
            },
            "imageFocus": {
              "key": "imageFocus",
              "label": "Bild Fokus",
              "type": "",
              "multiSelect": false,
              "values": {"id": 66484, "label": "Produkt", "value": "product"}
            },
            "imageBackground": {
              "key": "imageBackground",
              "label": "Bild Hintergrund",
              "type": "",
              "multiSelect": false,
              "values": {"id": 66506, "label": "grau", "value": "grey"}
            }
          }
        }
      ],
      "attributes": {
        "colorDetail": {
          "key": "colorDetail",
          "label": "Detailfarbe",
          "type": "",
          "multiSelect": false,
          "values": {"id": 38866, "label": "pink", "value": "pink"}
        },
        "color": {
          "key": "color",
          "label": "Suchfarbe",
          "type": "",
          "multiSelect": false,
          "values": {"id": 38930, "label": "pink", "value": "pink"}
        },
        "giftCardsManual": {
          "key": "giftCardsManual",
          "label": "Anleitung",
          "type": "extras",
          "multiSelect": true,
          "values": [
            {
              "id": 70619,
              "label": "Einfach einzul\u00f6sen",
              "value": "easy_to_use"
            },
            {
              "id": 70620,
              "label": "Zeitlich unbegrenzt",
              "value": "no_due_date"
            },
            {
              "id": 70621,
              "label": "Kein Mindestbestellwert",
              "value": "no_minimum_order_value"
            }
          ]
        },
        "isGiftCard": {
          "key": "isGiftCard",
          "label": "isGiftCard",
          "type": "",
          "multiSelect": false,
          "values": {"id": 70638, "label": "true", "value": "true"}
        },
        "countryApprovalGiftcards": {
          "key": "countryApprovalGiftcards",
          "label": "CountryApprovalGiftCards",
          "type": "",
          "multiSelect": false,
          "values": {"id": 70639, "label": "de", "value": "de"}
        },
        "brand": {
          "key": "brand",
          "label": "Marke",
          "type": "",
          "multiSelect": false,
          "values": {"id": 60555, "label": "ABOUT YOU", "value": "about_you"}
        },
        "genderage": {
          "key": "genderage",
          "label": "Zielgruppe",
          "type": "",
          "multiSelect": false,
          "values": {"id": 25528, "label": "Unisex", "value": "unisex"}
        },
        "vendorSizeRun": {
          "key": "vendorSizeRun",
          "label": "Gr\u00f6\u00dfenlauf",
          "type": "",
          "multiSelect": false,
          "values": {
            "id": 70649,
            "label": "Unisex - Geschenkkarten",
            "value": "unisex_geschenkkarten"
          }
        },
        "shopSizeRun": {
          "key": "shopSizeRun",
          "label": "Gr\u00f6\u00dfe",
          "type": "",
          "multiSelect": false,
          "values": {
            "id": 70656,
            "label": "Unisex - Geschenkkarten",
            "value": "unisex_geschenkkarten"
          }
        },
        "name": {
          "key": "name",
          "label": "Name",
          "type": null,
          "multiSelect": false,
          "values": {"label": "Geschenkkarte 'Universal'"}
        },
        "description": {
          "key": "description",
          "label": "Description",
          "type": null,
          "multiSelect": false,
          "values": {"label": "-"}
        }
      }
    },
    {
      "id": 4001033,
      "isActive": true,
      "isSoldOut": false,
      "isNew": true,
      "createdAt": "2018-11-12T17:24:57+01:00",
      "updatedAt": "2018-11-12T17:24:58+01:00",
      "masterKey": "Thank_You_egift_card_de-135",
      "images": [
        {
          "hash": "5d38aafa4ae2583fb41eeb7043843024",
          "attributes": {
            "imageType": {
              "key": "imageType",
              "label": "Bild Typ",
              "type": "",
              "multiSelect": false,
              "values": {"id": 66480, "label": "B\u00fcste", "value": "bust"}
            },
            "imageFocus": {
              "key": "imageFocus",
              "label": "Bild Fokus",
              "type": "",
              "multiSelect": false,
              "values": {"id": 66484, "label": "Produkt", "value": "product"}
            },
            "imageView": {
              "key": "imageView",
              "label": "Bild Ansicht",
              "type": "",
              "multiSelect": false,
              "values": {
                "id": 66486,
                "label": "Frontalansicht",
                "value": "front"
              }
            },
            "imageBackground": {
              "key": "imageBackground",
              "label": "Bild Hintergrund",
              "type": "",
              "multiSelect": false,
              "values": {"id": 66506, "label": "grau", "value": "grey"}
            }
          }
        },
        {
          "hash": "fd8dfff09d68be839f7b00be5e67b275",
          "attributes": {
            "imageType": {
              "key": "imageType",
              "label": "Bild Typ",
              "type": "",
              "multiSelect": false,
              "values": {"id": 66480, "label": "B\u00fcste", "value": "bust"}
            },
            "imageFocus": {
              "key": "imageFocus",
              "label": "Bild Fokus",
              "type": "",
              "multiSelect": false,
              "values": {"id": 66484, "label": "Produkt", "value": "product"}
            },
            "imageBackground": {
              "key": "imageBackground",
              "label": "Bild Hintergrund",
              "type": "",
              "multiSelect": false,
              "values": {"id": 66506, "label": "grau", "value": "grey"}
            }
          }
        }
      ],
      "attributes": {
        "colorDetail": {
          "key": "colorDetail",
          "label": "Detailfarbe",
          "type": "",
          "multiSelect": false,
          "values": {"id": 38905, "label": "schwarz", "value": "schwarz"}
        },
        "color": {
          "key": "color",
          "label": "Suchfarbe",
          "type": "",
          "multiSelect": false,
          "values": {"id": 38932, "label": "schwarz", "value": "schwarz"}
        },
        "giftCardsManual": {
          "key": "giftCardsManual",
          "label": "Anleitung",
          "type": "extras",
          "multiSelect": true,
          "values": [
            {
              "id": 70619,
              "label": "Einfach einzul\u00f6sen",
              "value": "easy_to_use"
            },
            {
              "id": 70620,
              "label": "Zeitlich unbegrenzt",
              "value": "no_due_date"
            },
            {
              "id": 70621,
              "label": "Kein Mindestbestellwert",
              "value": "no_minimum_order_value"
            }
          ]
        },
        "isGiftCard": {
          "key": "isGiftCard",
          "label": "isGiftCard",
          "type": "",
          "multiSelect": false,
          "values": {"id": 70638, "label": "true", "value": "true"}
        },
        "countryApprovalGiftcards": {
          "key": "countryApprovalGiftcards",
          "label": "CountryApprovalGiftCards",
          "type": "",
          "multiSelect": false,
          "values": {"id": 70639, "label": "de", "value": "de"}
        },
        "brand": {
          "key": "brand",
          "label": "Marke",
          "type": "",
          "multiSelect": false,
          "values": {"id": 60555, "label": "ABOUT YOU", "value": "about_you"}
        },
        "genderage": {
          "key": "genderage",
          "label": "Zielgruppe",
          "type": "",
          "multiSelect": false,
          "values": {"id": 25528, "label": "Unisex", "value": "unisex"}
        },
        "vendorSizeRun": {
          "key": "vendorSizeRun",
          "label": "Gr\u00f6\u00dfenlauf",
          "type": "",
          "multiSelect": false,
          "values": {
            "id": 70649,
            "label": "Unisex - Geschenkkarten",
            "value": "unisex_geschenkkarten"
          }
        },
        "shopSizeRun": {
          "key": "shopSizeRun",
          "label": "Gr\u00f6\u00dfe",
          "type": "",
          "multiSelect": false,
          "values": {
            "id": 70656,
            "label": "Unisex - Geschenkkarten",
            "value": "unisex_geschenkkarten"
          }
        },
        "name": {
          "key": "name",
          "label": "Name",
          "type": null,
          "multiSelect": false,
          "values": {"label": "Geschenkkarte 'Thank You'"}
        },
        "description": {
          "key": "description",
          "label": "Description",
          "type": null,
          "multiSelect": false,
          "values": {"label": "-"}
        }
      }
    }
  ]
}
